<svg width="237" height="71" viewBox="0 0 237 71" fill="none" xmlns="http://www.w3.org/2000/svg">
<path fill-rule="evenodd" clip-rule="evenodd" d="M28.5823 0.591309C52.4033 0.591309 63.8402 10.4242 67.434 24.3885L67.2398 24.5334C67.2431 24.6021 67.2323 24.6707 67.2082 24.735C67.184 24.7994 67.147 24.8583 67.0993 24.908C67.0516 24.9577 66.9943 24.9972 66.9308 25.0242C66.8673 25.0512 66.7989 25.0651 66.7298 25.065L66.2685 24.7751C59.1301 13.4115 47.8181 13.4151 33.1779 13.4199C32.8777 13.42 32.5762 13.4201 32.2732 13.4201H15.9312L17.7038 25.3549C17.8842 26.5485 18.0584 27.7401 18.2316 28.9248C20.2496 42.7281 22.1312 55.5994 32.1275 59.7824L32.4432 60.2657C32.4432 60.773 31.8604 60.7729 31.8604 60.7729C15.7855 57.9704 6.72817 50.3844 3.79 26.7562L0.00195312 0.591309H28.5823ZM236.998 27.0461H233.064V60.9421H236.998V27.0461ZM142.99 27.9366C142.591 27.6711 142.121 27.5293 141.641 27.5293C140.997 27.5293 140.38 27.7839 139.924 28.237C139.469 28.69 139.213 29.3045 139.213 29.9453C139.213 30.4231 139.355 30.8903 139.622 31.2876C139.889 31.6849 140.268 31.9945 140.712 32.1773C141.156 32.3602 141.644 32.4081 142.115 32.3149C142.586 32.2217 143.019 31.9916 143.358 31.6537C143.698 31.3158 143.929 30.8853 144.023 30.4167C144.116 29.948 144.068 29.4623 143.885 29.0208C143.701 28.5794 143.39 28.202 142.99 27.9366ZM143.681 36.8067H139.771V60.9663H143.681V36.8067ZM116.751 28.4473H106.674L106.577 60.942H116.29C129.087 60.942 134.769 53.5251 134.769 44.2236C134.769 35.6952 130.01 28.4473 116.751 28.4473ZM110.924 57.004V32.3853H116.654C126.707 32.3853 130.35 37.4589 130.35 44.2236C130.35 51.6164 126.294 57.004 116.581 57.004H110.924ZM148.343 48.8863C148.28 47.2495 148.553 45.6171 149.144 44.0883C149.735 42.5596 150.633 41.1664 151.782 39.9935C152.931 38.8207 154.308 37.8928 155.829 37.266C157.35 36.6392 158.983 36.3266 160.63 36.3475C165.098 36.3475 167.914 37.8695 169.25 40.2855V36.8065H173.184V59.0816C173.184 67.2718 168.521 70.6542 162.354 70.6542C156.987 70.6542 152.884 68.3832 151.524 64.8076L155.02 63.2614C155.707 64.5035 156.745 65.518 158.005 66.1793C159.265 66.8406 160.693 67.1196 162.111 66.9819C163.087 67.089 164.076 66.9738 165.001 66.6452C165.926 66.3167 166.764 65.7832 167.452 65.0851C168.139 64.387 168.658 63.5425 168.97 62.6155C169.282 61.6885 169.377 60.7032 169.25 59.734V56.4483C168.371 58.0663 167.031 59.3889 165.397 60.2489C163.763 61.109 161.91 61.4678 160.071 61.2803C153.491 61.2803 148.343 56.5932 148.343 48.838V48.8863ZM169.25 49.0071V48.1374C169.328 47.0481 169.171 45.9546 168.79 44.9305C168.409 43.9063 167.812 42.9752 167.039 42.1995C166.266 41.4239 165.336 40.8216 164.31 40.4331C163.284 40.0447 162.187 39.879 161.091 39.9472C159.935 39.9335 158.789 40.1531 157.721 40.5927C156.653 41.0322 155.686 41.6826 154.878 42.5046C154.07 43.3266 153.438 44.3032 153.02 45.3752C152.602 46.4472 152.407 47.5923 152.447 48.7414C152.343 49.8885 152.485 51.0443 152.864 52.1326C153.242 53.221 153.849 54.2171 154.643 55.0551C155.437 55.8931 156.4 56.554 157.47 56.9941C158.54 57.4341 159.691 57.6433 160.848 57.6079C161.993 57.6872 163.142 57.5171 164.214 57.1094C165.286 56.7017 166.255 56.0664 167.055 55.2476C167.855 54.4287 168.466 53.4461 168.845 52.3683C169.224 51.2905 169.362 50.1435 169.25 49.0071ZM183.032 27.9366C182.633 27.6711 182.163 27.5293 181.683 27.5293C181.039 27.5293 180.421 27.7839 179.966 28.237C179.511 28.69 179.255 29.3045 179.255 29.9453C179.255 30.4231 179.397 30.8903 179.664 31.2876C179.931 31.6849 180.31 31.9945 180.754 32.1773C181.198 32.3602 181.686 32.4081 182.157 32.3149C182.628 32.2217 183.061 31.9916 183.4 31.6537C183.74 31.3158 183.971 30.8853 184.065 30.4167C184.158 29.948 184.11 29.4623 183.927 29.0208C183.743 28.5794 183.432 28.202 183.032 27.9366ZM183.626 36.8067H179.716V60.9663H183.626V36.8067ZM187.364 36.8064H191.468V30.6216H195.402V36.8064H202.079V40.4788H195.402V54.0323C195.402 56.714 196.276 57.7046 198.558 57.7046C199.748 57.675 200.93 57.5046 202.079 57.1972V60.9661C200.605 61.3 199.099 61.4781 197.587 61.4975C193.192 61.4975 191.468 59.3958 191.468 53.7907V40.5995H187.364V36.8064ZM210.299 37.9294C208.382 39.1187 206.903 40.895 206.087 42.9914L209.632 44.2477C210.15 42.8635 211.122 41.6935 212.391 40.9264C213.66 40.1593 215.152 39.8399 216.625 40.0198C220.778 40.0198 222.696 42.0734 222.696 46.5429C210.19 46.5429 205.334 48.6206 205.334 54.1531C205.334 58.526 208.733 61.401 213.784 61.401C215.546 61.4746 217.295 61.0872 218.859 60.2775C220.423 59.4678 221.746 58.2641 222.696 56.7866V60.9662H226.605V46.6879C226.589 39.8265 223.295 36.3959 216.722 36.3959C214.471 36.2021 212.217 36.7401 210.299 37.9294ZM222.696 49.7561V50.6499C222.696 54.7812 219.442 57.7047 214.586 57.7047C211.405 57.7047 209.438 56.3517 209.438 54.1773C209.438 50.8674 212.716 49.7561 222.696 49.7561ZM50.6309 49.7561L57.4056 60.942H65.3945L54.8803 44.6101L65.1031 28.4473H57.1628L50.8251 38.8843L44.1718 28.4473H35.8672L46.26 44.1028L36.0857 60.942H44.0018L50.6309 49.7561ZM91.2071 49.901C91.2071 57.1489 85.7922 61.5218 78.7017 61.5218C77.1708 61.6585 75.628 61.4787 74.1703 60.9936C72.7125 60.5085 71.3714 59.7287 70.2312 58.7031C69.0909 57.6776 68.1762 56.4284 67.5445 55.0342C66.9128 53.64 66.5778 52.131 66.5605 50.6018H73.3353C73.5349 51.9842 74.2616 53.2372 75.3648 54.1008C76.4679 54.9645 77.8628 55.3725 79.2602 55.2404C79.9705 55.2779 80.6805 55.1597 81.3398 54.8941C81.9992 54.6286 82.5918 54.2222 83.0759 53.7037C83.56 53.1852 83.9238 52.5671 84.1414 51.8933C84.359 51.2196 84.4251 50.5065 84.3352 49.8045C84.3422 49.0786 84.1954 48.3594 83.9045 47.6937C83.6135 47.028 83.185 46.4307 82.6467 45.9407C82.1084 45.4507 81.4724 45.0789 80.7802 44.8497C80.0879 44.6204 79.3549 44.5388 78.6289 44.6101C77.5734 44.5514 76.5209 44.768 75.5754 45.2384C74.6299 45.7087 73.8243 46.4166 73.2382 47.2919H66.9248L69.1588 28.4473H90.4301L89.7259 34.753H74.4038L73.7967 41.0103C73.7967 41.0103 75.3993 39.1259 80.2558 39.1259C81.7006 39.0579 83.1439 39.2893 84.4941 39.8054C85.8443 40.3216 87.0719 41.1113 88.0993 42.1244C89.1266 43.1374 89.9312 44.3518 90.462 45.6905C90.9928 47.0292 91.2383 48.463 91.1829 49.901H91.2071Z" fill="#1F3D21"/>
</svg>
